-------------------------------------------------------------------------------
Test set: com.softtek.academy.javaweb.person.PersonTest
-------------------------------------------------------------------------------
Tests run: 2, Failures: 0, Errors: 0, Skipped: 0, Time elapsed: 2.766 sec
